<?xml version="1.0" standalone="no"?>
<!DOCTYPE svg PUBLIC "-//W3C//DTD SVG 1.1//EN" "http://www.w3.org/Graphics/SVG/1.1/DTD/svg11.dtd" >
<svg xmlns="http://www.w3.org/2000/svg">
<metadata>Generated by IcoMoon</metadata>
<defs>
<font id="icomoon" horiz-adv-x="1024">
<font-face units-per-em="1024" ascent="960" descent="-64" />
<missing-glyph horiz-adv-x="1024" />
<glyph unicode="&#x20;" horiz-adv-x="512" d="" />
<glyph unicode="&#xe900;" glyph-name="menu" d="M896 652.8h-768c-14.131 0-25.6 11.469-25.6 25.6s11.469 25.6 25.6 25.6h768c14.131 0 25.6-11.469 25.6-25.6s-11.469-25.6-25.6-25.6zM896 396.8h-768c-14.131 0-25.6 11.469-25.6 25.6s11.469 25.6 25.6 25.6h768c14.131 0 25.6-11.469 25.6-25.6s-11.469-25.6-25.6-25.6zM896 140.8h-768c-14.131 0-25.6 11.469-25.6 25.6s11.469 25.6 25.6 25.6h768c14.131 0 25.6-11.469 25.6-25.6s-11.469-25.6-25.6-25.6z" />
<glyph unicode="&#xe901;" glyph-name="magnifier" d="M966.093-21.094l-304.282 331.981c68.557 71.731 106.24 165.53 106.24 265.114 0 102.554-39.936 199.014-112.486 271.514s-168.96 112.486-271.514 112.486-199.014-39.936-271.514-112.486-112.486-168.96-112.486-271.514 39.936-199.014 112.486-271.514 168.96-112.486 271.514-112.486c88.371 0 172.134 29.645 240.026 84.224l304.282-331.93c5.069-5.53 11.93-8.294 18.893-8.294 6.195 0 12.39 2.202 17.306 6.707 10.445 9.574 11.11 25.754 1.587 36.147zM51.2 576c0 183.501 149.299 332.8 332.8 332.8s332.8-149.299 332.8-332.8-149.299-332.8-332.8-332.8-332.8 149.299-332.8 332.8z" />
<glyph unicode="&#xe902;" glyph-name="message" d="M921.6 665.6v-358.4c0-56.32-46.080-102.4-102.4-102.4h-204.8v-153.6l-204.8 153.6h-204.8c-56.371 0-102.4 46.080-102.4 102.4v358.4c0 56.32 46.029 102.4 102.4 102.4h614.4c56.32 0 102.4-46.080 102.4-102.4z" />
<glyph unicode="&#xe903;" glyph-name="bag, shop, store" d="M1023.84-22.45l-51.106 715.474c-0.957 13.397-12.102 23.776-25.534 23.776h-117.397l-197.302 197.301c-9.997 9.998-26.206 9.998-36.203 0l-25.6-25.6c-9.998-9.997-9.998-26.206 0-36.203 9.997-9.998 26.206-9.998 36.203 0l7.499 7.499 142.997-142.997h-81.194l-222.902 222.901c-9.997 9.998-26.206 9.998-36.203 0l-222.901-222.901h-117.397c-13.43 0-24.578-10.379-25.534-23.776l-51.2-716.8c-0.506-7.088 1.957-14.067 6.8-19.269 4.842-5.2 11.629-8.155 18.734-8.155h972.8c0.010 0 0.022 0 0.032 0 14.139 0 25.6 11.461 25.6 25.6 0 1.067-0.066 2.117-0.192 3.15zM435.2 885.397l168.597-168.597h-337.194l168.597 168.597zM53.094 0l47.542 665.6h104.155c0.005 0 0.011 0 0.016 0h718.557l47.542-665.6h-917.813zM512 256c-56.461 0-108.91 30.506-147.686 85.901-36.83 52.614-57.114 122.115-57.114 195.699 0 14.138 11.462 25.6 25.6 25.6s25.6-11.462 25.6-25.6c0-63.176 16.997-122.25 47.859-166.339 28.917-41.309 66.47-64.061 105.741-64.061s76.824 22.752 105.741 64.061c30.862 44.090 47.859 103.163 47.859 166.339 0 14.138 11.461 25.6 25.6 25.6s25.6-11.462 25.6-25.6c0-73.584-20.285-143.085-57.114-195.699-38.778-55.395-91.226-85.901-147.686-85.901z" />
<glyph unicode="&#xe904;" glyph-name="cross, cancel" d="M548.203 435.2l442.698 442.699c9.998 9.997 9.998 26.206 0 36.203s-26.206 9.998-36.203 0l-442.698-442.699-442.699 442.698c-9.997 9.998-26.206 9.998-36.203 0s-9.998-26.206 0-36.203l442.699-442.698-442.698-442.699c-9.998-9.997-9.998-26.206 0-36.203 4.998-4.998 11.549-7.498 18.101-7.498s13.102 2.499 18.101 7.499l442.699 442.698 442.699-442.699c4.998-4.998 11.549-7.498 18.101-7.498s13.102 2.499 18.101 7.499c9.998 9.997 9.998 26.206 0 36.203l-442.698 442.698z" />
</font></defs></svg>